<?xml version="1.0" encoding="utf-8"?>
<!-- Generator: Adobe Illustrator 19.0.0, SVG Export Plug-In . SVG Version: 6.00 Build 0)  -->
<svg version="1.1" id="Layer_1" xmlns="http://www.w3.org/2000/svg" xmlns:xlink="http://www.w3.org/1999/xlink" x="0px" y="0px"
	 viewBox="0 0 50.8 43.6" style="enable-background:new 0 0 50.8 43.6;" xml:space="preserve">
<style type="text/css">
	.st0{fill:none;stroke:#FF0000;stroke-width:3;stroke-miterlimit:10;}
</style>
<polygon id="XMLID_1_" class="st0" points="13.8,41.9 2.3,21.9 13.8,1.9 37,1.9 48.6,21.9 37,41.9 "/>
</svg>
