<?xml version="1.0" encoding="utf-8"?>
<!-- Generator: Adobe Illustrator 19.0.0, SVG Export Plug-In . SVG Version: 6.00 Build 0)  -->
<svg version="1.1" id="Layer_1" xmlns="http://www.w3.org/2000/svg" xmlns:xlink="http://www.w3.org/1999/xlink" x="0px" y="0px"
	 viewBox="5 137.3 309.4 26.7" style="enable-background:new 5 137.3 309.4 26.7;" xml:space="preserve">
<style type="text/css">
	.st0{fill:none;stroke:#FF0000;stroke-miterlimit:10;}
	.st1{fill:#FF0000;}
</style>
<polygon id="XMLID_3_" class="st0" points="152.7,144.6 162.7,138.6 172.7,144.6 172.7,156.6 162.7,162.5 152.7,156.6 "/>
<rect id="XMLID_4_" x="184.9" y="150.1" class="st1" width="129.5" height="1"/>
<rect id="XMLID_6_" x="5" y="150.1" class="st1" width="136.3" height="1"/>
</svg>
